-------------------------------------------------------------------------------
Test set: com.db.demomidtier.UserDataTest
-------------------------------------------------------------------------------
Tests run: 7, Failures: 0, Errors: 0, Skipped: 0, Time elapsed: 0.136 sec
